02.303 Lock-In-Verstärker/NEW_FOL/ALL0017/F0017CH1.CSV

Record Length,2.500000e+03,,  -0.000050000000,  30.00000,
Sample Interval,4.000000e-08,,  -0.000049960000,  30.00000,
Trigger Point,1.250000000000e+03,,  -0.000049920000,  30.00000,
,,,  -0.000049880000,  28.00000,
,,,  -0.000049840000,  30.00000,
,,,  -0.000049800000,  30.00000,
Source,CH1,,  -0.000049760000,  30.00000,
Vertical Units,V,,  -0.000049720000,  26.00000,
Vertical Scale,5.000000e+01,,  -0.000049680000,  26.00000,
Vertical Offset,0.000000e+00,,  -0.000049640000,  28.00000,
Horizontal Units,s,,  -0.000049600000,  26.00000,
Horizontal Scale,1.000000e-05,,  -0.000049560000,  28.00000,
Pt Fmt,Y,,  -0.000049520000,  26.00000,
Yzero,0.000000e+00,,  -0.000049480000,  26.00000,
Probe Atten,1.000000e+01,,  -0.000049440000,  24.00000,
Model Number,TDS1001B,,  -0.000049400000,  24.00000,
Serial Number,C051193,,  -0.000049360000,  24.00000,
Firmware Version,FV:v22.01,,  -0.000049320000,  24.00000,
,,,-00.000049280000,  22.00000,
,,,-00.000049240000,  22.00000,
,,,-00.000049200000,  22.00000,
,,,-00.000049160000,  20.00000,
,,,-00.000049120000,  22.00000,
,,,-00.000049080000,  22.00000,
,,,-00.000049040000,  18.00000,
,,,-00.000049000000,  18.00000,
,,,-00.000048960000,  18.00000,
,,,-00.000048920000,  16.00000,
,,,-00.000048880000,  16.00000,
,,,-00.000048840000,  18.00000,
,,,-00.000048800000,  16.00000,
,,,-00.000048760000,  16.00000,
,,,-00.000048720000,  16.00000,
,,,-00.000048680000,  14.00000,
,,,-00.000048640000,  16.00000,
,,,-00.000048600000,  16.00000,
,,,-00.000048560000,  16.00000,
,,,-00.000048520000,  14.00000,
,,,-00.000048480000,  12.00000,
,,,-00.000048440000,  12.00000,
,,,-00.000048400000,  10.00000,
,,,-00.000048360000,  10.00000,
,,,-00.000048320000,  12.00000,
,,,-00.000048280000,  10.00000,
,,,-00.000048240000,  10.00000,
,,,-00.000048200000,   8.00000,
,,,-00.000048160000,  10.00000,
,,,-00.000048120000,   8.00000,
,,,-00.000048080000,  10.00000,
,,,-00.000048040000,   8.00000,
,,,-00.000048000000,   8.00000,
,,,-00.000047960000,   8.00000,
,,,-00.000047920000,   8.00000,
,,,-00.000047880000,   8.00000,
,,,-00.000047840000,   6.00000,
,,,-00.000047800000,   6.00000,
,,,-00.000047760000,   6.00000,
,,,-00.000047720000,   6.00000,
,,,-00.000047680000,   6.00000,
,,,-00.000047640000,   6.00000,
,,,-00.000047600000,   2.00000,
,,,-00.000047560000,   4.00000,
,,,-00.000047520000,   4.00000,
,,,-00.000047480000,   4.00000,
,,,-00.000047440000,   4.00000,
,,,-00.000047400000,   2.00000,
,,,-00.000047360000,   4.00000,
,,,-00.000047320000,   6.00000,
,,,-00.000047280000,   6.00000,
,,,-00.000047240000,   4.00000,
,,,-00.000047200000,   4.00000,
,,,-00.000047160000,   4.00000,
,,,-00.000047120000,   6.00000,
,,,-00.000047080000,   8.00000,
,,,-00.000047040000,   8.00000,
,,,-00.000047000000,   8.00000,
,,,-00.000046960000,  10.00000,
,,,-00.000046920000,  10.00000,
,,,-00.000046880000,   8.00000,
,,,-00.000046840000,  12.00000,
,,,-00.000046800000,  12.00000,
,,,-00.000046760000,  14.00000,
,,,-00.000046720000,  14.00000,
,,,-00.000046680000,  14.00000,
,,,-00.000046640000,  14.00000,
,,,-00.000046600000,  14.00000,
,,,-00.000046560000,  14.00000,
,,,-00.000046520000,  16.00000,
,,,-00.000046480000,  18.00000,
,,,-00.000046440000,  16.00000,
,,,-00.000046400000,  16.00000,
,,,-00.000046360000,  16.00000,
,,,-00.000046320000,  16.00000,
,,,-00.000046280000,  18.00000,
,,,-00.000046240000,  20.00000,
,,,-00.000046200000,  18.00000,
,,,-00.000046160000,  18.00000,
,,,-00.000046120000,  20.00000,
,,,-00.000046080000,  20.00000,
,,,-00.000046040000,  22.00000,
,,,-00.000046000000,  20.00000,
,,,-00.000045960000,  22.00000,
,,,-00.000045920000,  22.00000,
,,,-00.000045880000,  22.00000,
,,,-00.000045840000,  24.00000,
,,,-00.000045800000,  24.00000,
,,,-00.000045760000,  22.00000,
,,,-00.000045720000,  26.00000,
,,,-00.000045680000,  26.00000,
,,,-00.000045640000,  26.00000,
,,,-00.000045600000,  30.00000,
,,,-00.000045560000,  28.00000,
,,,-00.000045520000,  28.00000,
,,,-00.000045480000,  28.00000,
,,,-00.000045440000,  28.00000,
,,,-00.000045400000,  30.00000,
,,,-00.000045360000,  30.00000,
,,,-00.000045320000,  32.00000,
,,,-00.000045280000,  32.00000,
,,,-00.000045240000,  32.00000,
,,,-00.000045200000,  32.00000,
,,,-00.000045160000,  32.00000,
,,,-00.000045120000,  32.00000,
,,,-00.000045080000,  32.00000,
,,,-00.000045040000,  34.00000,
,,,-00.000045000000,  32.00000,
,,,-00.000044960000,  34.00000,
,,,-00.000044920000,  34.00000,
,,,-00.000044880000,  38.00000,
,,,-00.000044840000,  36.00000,
,,,-00.000044800000,  38.00000,
,,,-00.000044760000,  40.00000,
,,,-00.000044720000,  38.00000,
,,,-00.000044680000,  40.00000,
,,,-00.000044640000,  40.00000,
,,,-00.000044600000,  42.00000,
,,,-00.000044560000,  42.00000,
,,,-00.000044520000,  40.00000,
,,,-00.000044480000,  42.00000,
,,,-00.000044440000,  42.00000,
,,,-00.000044400000,  42.00000,
,,,-00.000044360000,  42.00000,
,,,-00.000044320000,  44.00000,
,,,-00.000044280000,  44.00000,
,,,-00.000044240000,  46.00000,
,,,-00.000044200000,  46.00000,
,,,-00.000044160000,  46.00000,
,,,-00.000044120000,  46.00000,
,,,-00.000044080000,  48.00000,
,,,-00.000044040000,  50.00000,
,,,-00.000044000000,  50.00000,
,,,-00.000043960000,  50.00000,
,,,-00.000043920000,  48.00000,
,,,-00.000043880000,  50.00000,
,,,-00.000043840000,  52.00000,
,,,-00.000043800000,  50.00000,
,,,-00.000043760000,  50.00000,
,,,-00.000043720000,  52.00000,
,,,-00.000043680000,  52.00000,
,,,-00.000043640000,  54.00000,
,,,-00.000043600000,  52.00000,
,,,-00.000043560000,  54.00000,
,,,-00.000043520000,  54.00000,
,,,-00.000043480000,  56.00000,
,,,-00.000043440000,  54.00000,
,,,-00.000043400000,  56.00000,
,,,-00.000043360000,  56.00000,
,,,-00.000043320000,  58.00000,
,,,-00.000043280000,  58.00000,
,,,-00.000043240000,  60.00000,
,,,-00.000043200000,  58.00000,
,,,-00.000043160000,  60.00000,
,,,-00.000043120000,  60.00000,
,,,-00.000043080000,  60.00000,
,,,-00.000043040000,  62.00000,
,,,-00.000043000000,  60.00000,
,,,-00.000042960000,  62.00000,
,,,-00.000042920000,  62.00000,
,,,-00.000042880000,  62.00000,
,,,-00.000042840000,  64.00000,
,,,-00.000042800000,  64.00000,
,,,-00.000042760000,  68.00000,
,,,-00.000042720000,  64.00000,
,,,-00.000042680000,  66.00000,
,,,-00.000042640000,  66.00000,
,,,-00.000042600000,  66.00000,
,,,-00.000042560000,  66.00000,
,,,-00.000042520000,  66.00000,
,,,-00.000042480000,  68.00000,
,,,-00.000042440000,  68.00000,
,,,-00.000042400000,  66.00000,
,,,-00.000042360000,  68.00000,
,,,-00.000042320000,  70.00000,
,,,-00.000042280000,  70.00000,
,,,-00.000042240000,  70.00000,
,,,-00.000042200000,  70.00000,
,,,-00.000042160000,  72.00000,
,,,-00.000042120000,  70.00000,
,,,-00.000042080000,  72.00000,
,,,-00.000042040000,  72.00000,
,,,-00.000042000000,  76.00000,
,,,-00.000041960000,  74.00000,
,,,-00.000041920000,  74.00000,
,,,-00.000041880000,  76.00000,
,,,-00.000041840000,  74.00000,
,,,-00.000041800000,  76.00000,
,,,-00.000041760000,  76.00000,
,,,-00.000041720000,  76.00000,
,,,-00.000041680000,  78.00000,
,,,-00.000041640000,  78.00000,
,,,-00.000041600000,  76.00000,
,,,-00.000041560000,  80.00000,
,,,-00.000041520000,  80.00000,
,,,-00.000041480000,  80.00000,
,,,-00.000041440000,  82.00000,
,,,-00.000041400000,  80.00000,
,,,-00.000041360000,  82.00000,
,,,-00.000041320000,  80.00000,
,,,-00.000041280000,  86.00000,
,,,-00.000041240000,  82.00000,
,,,-00.000041200000,  84.00000,
,,,-00.000041160000,  84.00000,
,,,-00.000041120000,  84.00000,
,,,-00.000041080000,  86.00000,
,,,-00.000041040000,  84.00000,
,,,-00.000041000000,  86.00000,
,,,-00.000040960000,  84.00000,
,,,-00.000040920000,  86.00000,
,,,-00.000040880000,  84.00000,
,,,-00.000040840000,  84.00000,
,,,-00.000040800000,  88.00000,
,,,-00.000040760000,  84.00000,
,,,-00.000040720000,  84.00000,
,,,-00.000040680000,  84.00000,
,,,-00.000040640000,  82.00000,
,,,-00.000040600000,  84.00000,
,,,-00.000040560000,  80.00000,
,,,-00.000040520000,  82.00000,
,,,-00.000040480000,  78.00000,
,,,-00.000040440000,  80.00000,
,,,-00.000040400000,  80.00000,
,,,-00.000040360000,  82.00000,
,,,-00.000040320000,  80.00000,
,,,-00.000040280000,  78.00000,
,,,-00.000040240000,  80.00000,
,,,-00.000040200000,  76.00000,
,,,-00.000040160000,  76.00000,
,,,-00.000040120000,  76.00000,
,,,-00.000040080000,  76.00000,
,,,-00.000040040000,  76.00000,
,,,-00.000040000000,  76.00000,
,,,-00.000039960000,  74.00000,
,,,-00.000039920000,  72.00000,
,,,-00.000039880000,  74.00000,
,,,-00.000039840000,  74.00000,
,,,-00.000039800000,  72.00000,
,,,-00.000039760000,  70.00000,
,,,-00.000039720000,  70.00000,
,,,-00.000039680000,  70.00000,
,,,-00.000039640000,  72.00000,
,,,-00.000039600000,  70.00000,
,,,-00.000039560000,  70.00000,
,,,-00.000039520000,  70.00000,
,,,-00.000039480000,  68.00000,
,,,-00.000039440000,  66.00000,
,,,-00.000039400000,  70.00000,
,,,-00.000039360000,  66.00000,
,,,-00.000039320000,  66.00000,
,,,-00.000039280000,  68.00000,
,,,-00.000039240000,  64.00000,
,,,-00.000039200000,  64.00000,
,,,-00.000039160000,  64.00000,
,,,-00.000039120000,  62.00000,
,,,-00.000039080000,  64.00000,
,,,-00.000039040000,  64.00000,
,,,-00.000039000000,  64.00000,
,,,-00.000038960000,  62.00000,
,,,-00.000038920000,  60.00000,
,,,-00.000038880000,  60.00000,
,,,-00.000038840000,  60.00000,
,,,-00.000038800000,  62.00000,
,,,-00.000038760000,  60.00000,
,,,-00.000038720000,  58.00000,
,,,-00.000038680000,  58.00000,
,,,-00.000038640000,  58.00000,
,,,-00.000038600000,  56.00000,
,,,-00.000038560000,  56.00000,
,,,-00.000038520000,  58.00000,
,,,-00.000038480000,  54.00000,
,,,-00.000038440000,  56.00000,
,,,-00.000038400000,  54.00000,
,,,-00.000038360000,  54.00000,
,,,-00.000038320000,  54.00000,
,,,-00.000038280000,  52.00000,
,,,-00.000038240000,  52.00000,
,,,-00.000038200000,  52.00000,
,,,-00.000038160000,  54.00000,
,,,-00.000038120000,  52.00000,
,,,-00.000038080000,  50.00000,
,,,-00.000038040000,  52.00000,
,,,-00.000038000000,  48.00000,
,,,-00.000037960000,  50.00000,
,,,-00.000037920000,  50.00000,
,,,-00.000037880000,  48.00000,
,,,-00.000037840000,  46.00000,
,,,-00.000037800000,  48.00000,
,,,-00.000037760000,  48.00000,
,,,-00.000037720000,  48.00000,
,,,-00.000037680000,  48.00000,
,,,-00.000037640000,  48.00000,
,,,-00.000037600000,  48.00000,
,,,-00.000037560000,  46.00000,
,,,-00.000037520000,  46.00000,
,,,-00.000037480000,  48.00000,
,,,-00.000037440000,  46.00000,
,,,-00.000037400000,  44.00000,
,,,-00.000037360000,  42.00000,
,,,-00.000037320000,  46.00000,
,,,-00.000037280000,  42.00000,
,,,-00.000037240000,  42.00000,
,,,-00.000037200000,  42.00000,
,,,-00.000037160000,  40.00000,
,,,-00.000037120000,  42.00000,
,,,-00.000037080000,  40.00000,
,,,-00.000037040000,  40.00000,
,,,-00.000037000000,  38.00000,
,,,-00.000036960000,  40.00000,
,,,-00.000036920000,  38.00000,
,,,-00.000036880000,  40.00000,
,,,-00.000036840000,  38.00000,
,,,-00.000036800000,  36.00000,
,,,-00.000036760000,  38.00000,
,,,-00.000036720000,  34.00000,
,,,-00.000036680000,  36.00000,
,,,-00.000036640000,  36.00000,
,,,-00.000036600000,  34.00000,
,,,-00.000036560000,  34.00000,
,,,-00.000036520000,  32.00000,
,,,-00.000036480000,  34.00000,
,,,-00.000036440000,  34.00000,
,,,-00.000036400000,  32.00000,
,,,-00.000036360000,  32.00000,
,,,-00.000036320000,  30.00000,
,,,-00.000036280000,  32.00000,
,,,-00.000036240000,  28.00000,
,,,-00.000036200000,  30.00000,
,,,-00.000036160000,  30.00000,
,,,-00.000036120000,  28.00000,
,,,-00.000036080000,  30.00000,
,,,-00.000036040000,  28.00000,
,,,-00.000036000000,  28.00000,
,,,-00.000035960000,  26.00000,
,,,-00.000035920000,  26.00000,
,,,-00.000035880000,  26.00000,
,,,-00.000035840000,  24.00000,
,,,-00.000035800000,  24.00000,
,,,-00.000035760000,  24.00000,
,,,-00.000035720000,  20.00000,
,,,-00.000035680000,  22.00000,
,,,-00.000035640000,  24.00000,
,,,-00.000035600000,  24.00000,
,,,-00.000035560000,  20.00000,
,,,-00.000035520000,  22.00000,
,,,-00.000035480000,  18.00000,
,,,-00.000035440000,  20.00000,
,,,-00.000035400000,  18.00000,
,,,-00.000035360000,  18.00000,
,,,-00.000035320000,  18.00000,
,,,-00.000035280000,  18.00000,
,,,-00.000035240000,  16.00000,
,,,-00.000035200000,  18.00000,
,,,-00.000035160000,  16.00000,
,,,-00.000035120000,  14.00000,
,,,-00.000035080000,  16.00000,
,,,-00.000035040000,  12.00000,
,,,-00.000035000000,  14.00000,
,,,-00.000034960000,  14.00000,
,,,-00.000034920000,  12.00000,
,,,-00.000034880000,  12.00000,
,,,-00.000034840000,  12.00000,
,,,-00.000034800000,  12.00000,
,,,-00.000034760000,  12.00000,
,,,-00.000034720000,   8.00000,
,,,-00.000034680000,   8.00000,
,,,-00.000034640000,   8.00000,
,,,-00.000034600000,  10.00000,
,,,-00.000034560000,   8.00000,
,,,-00.000034520000,   6.00000,
,,,-00.000034480000,   4.00000,
,,,-00.000034440000,   6.00000,
,,,-00.000034400000,   8.00000,
,,,-00.000034360000,   6.00000,
,,,-00.000034320000,   6.00000,
,,,-00.000034280000,   6.00000,
,,,-00.000034240000,   6.00000,
,,,-00.000034200000,   6.00000,
,,,-00.000034160000,   2.00000,
,,,-00.000034120000,   4.00000,
,,,-00.000034080000,   4.00000,
,,,-00.000034040000,   0.00000,
,,,-00.000034000000,   2.00000,
,,,-00.000033960000,   0.00000,
,,,-00.000033920000,   2.00000,
,,,-00.000033880000,   0.00000,
,,,-00.000033840000,   0.00000,
,,,-00.000033800000,   0.00000,
,,,-00.000033760000,   0.00000,
,,,-00.000033720000,   0.00000,
,,,-00.000033680000,   0.00000,
,,,-00.000033640000,  -2.00000,
,,,-00.000033600000,  -2.00000,
,,,-00.000033560000,  -2.00000,
,,,-00.000033520000,  -2.00000,
,,,-00.000033480000,  -4.00000,
,,,-00.000033440000,  -2.00000,
,,,-00.000033400000,  -4.00000,
,,,-00.000033360000,  -4.00000,
,,,-00.000033320000,  -4.00000,
,,,-00.000033280000,  -4.00000,
,,,-00.000033240000,  -4.00000,
,,,-00.000033200000,  -6.00000,
,,,-00.000033160000,  -6.00000,
,,,-00.000033120000,  -6.00000,
,,,-00.000033080000,  -6.00000,
,,,-00.000033040000,  -6.00000,
,,,-00.000033000000,  -6.00000,
,,,-00.000032960000,  -6.00000,
,,,-00.000032920000,  -6.00000,
,,,-00.000032880000,  -4.00000,
,,,-00.000032840000,  -4.00000,
,,,-00.000032800000,  -6.00000,
,,,-00.000032760000,  -6.00000,
,,,-00.000032720000,  -4.00000,
,,,-00.000032680000,  -2.00000,
,,,-00.000032640000,  -2.00000,
,,,-00.000032600000,  -4.00000,
,,,-00.000032560000,  -2.00000,
,,,-00.000032520000,  -2.00000,
,,,-00.000032480000,   0.00000,
,,,-00.000032440000,   0.00000,
,,,-00.000032400000,   2.00000,
,,,-00.000032360000,   0.00000,
,,,-00.000032320000,   0.00000,
,,,-00.000032280000,   0.00000,
,,,-00.000032240000,   2.00000,
,,,-00.000032200000,   2.00000,
,,,-00.000032160000,   4.00000,
,,,-00.000032120000,   4.00000,
,,,-00.000032080000,   4.00000,
,,,-00.000032040000,   6.00000,
,,,-00.000032000000,   4.00000,
,,,-00.000031960000,   4.00000,
,,,-00.000031920000,   4.00000,
,,,-00.000031880000,   2.00000,
,,,-00.000031840000,   4.00000,
,,,-00.000031800000,   0.00000,
,,,-00.000031760000,  -2.00000,
,,,-00.000031720000,   2.00000,
,,,-00.000031680000,   0.00000,
,,,-00.000031640000,  -2.00000,
,,,-00.000031600000,  -2.00000,
,,,-00.000031560000,  -2.00000,
,,,-00.000031520000,  -2.00000,
,,,-00.000031480000,  -2.00000,
,,,-00.000031440000,  -4.00000,
,,,-00.000031400000,  -4.00000,
,,,-00.000031360000,  -4.00000,
,,,-00.000031320000,  -6.00000,
,,,-00.000031280000,  -4.00000,
,,,-00.000031240000,  -6.00000,
,,,-00.000031200000,  -4.00000,
,,,-00.000031160000,  -6.00000,
,,,-00.000031120000,  -8.00000,
,,,-00.000031080000,  -8.00000,
,,,-00.000031040000,  -6.00000,
,,,-00.000031000000,  -8.00000,
,,,-00.000030960000,  -8.00000,
,,,-00.000030920000, -10.00000,
,,,-00.000030880000,  -8.00000,
,,,-00.000030840000,  -8.00000,
,,,-00.000030800000,  -8.00000,
,,,-00.000030760000, -12.00000,
,,,-00.000030720000, -12.00000,
,,,-00.000030680000, -10.00000,
,,,-00.000030640000, -14.00000,
,,,-00.000030600000, -10.00000,
,,,-00.000030560000, -14.00000,
,,,-00.000030520000, -14.00000,
,,,-00.000030480000, -16.00000,
,,,-00.000030440000, -16.00000,
,,,-00.000030400000, -16.00000,
,,,-00.000030360000, -18.00000,
,,,-00.000030320000, -16.00000,
,,,-00.000030280000, -16.00000,
,,,-00.000030240000, -18.00000,
,,,-00.000030200000, -18.00000,
,,,-00.000030160000, -18.00000,
,,,-00.000030120000, -20.00000,
,,,-00.000030080000, -22.00000,
,,,-00.000030040000, -22.00000,
,,,-00.000030000000, -22.00000,
,,,-00.000029960000, -22.00000,
,,,-00.000029920000, -24.00000,
,,,-00.000029880000, -22.00000,
,,,-00.000029840000, -22.00000,
,,,-00.000029800000, -24.00000,
,,,-00.000029760000, -22.00000,
,,,-00.000029720000, -24.00000,
,,,-00.000029680000, -26.00000,
,,,-00.000029640000, -28.00000,
,,,-00.000029600000, -28.00000,
,,,-00.000029560000, -24.00000,
,,,-00.000029520000, -24.00000,
,,,-00.000029480000, -26.00000,
,,,-00.000029440000, -26.00000,
,,,-00.000029400000, -28.00000,
,,,-00.000029360000, -28.00000,
,,,-00.000029320000, -30.00000,
,,,-00.000029280000, -30.00000,
,,,-00.000029240000, -30.00000,
,,,-00.000029200000, -32.00000,
,,,-00.000029160000, -30.00000,
,,,-00.000029120000, -32.00000,
,,,-00.000029080000, -32.00000,
,,,-00.000029040000, -30.00000,
,,,-00.000029000000, -34.00000,
,,,-00.000028960000, -30.00000,
,,,-00.000028920000, -34.00000,
,,,-00.000028880000, -32.00000,
,,,-00.000028840000, -36.00000,
,,,-00.000028800000, -36.00000,
,,,-00.000028760000, -36.00000,
,,,-00.000028720000, -36.00000,
,,,-00.000028680000, -34.00000,
,,,-00.000028640000, -36.00000,
,,,-00.000028600000, -36.00000,
,,,-00.000028560000, -38.00000,
,,,-00.000028520000, -36.00000,
,,,-00.000028480000, -38.00000,
,,,-00.000028440000, -38.00000,
,,,-00.000028400000, -38.00000,
,,,-00.000028360000, -38.00000,
,,,-00.000028320000, -40.00000,
,,,-00.000028280000, -36.00000,
,,,-00.000028240000, -36.00000,
,,,-00.000028200000, -36.00000,
,,,-00.000028160000, -36.00000,
,,,-00.000028120000, -34.00000,
,,,-00.000028080000, -34.00000,
,,,-00.000028040000, -34.00000,
,,,-00.000028000000, -36.00000,
,,,-00.000027960000, -32.00000,
,,,-00.000027920000, -34.00000,
,,,-00.000027880000, -32.00000,
,,,-00.000027840000, -32.00000,
,,,-00.000027800000, -32.00000,
,,,-00.000027760000, -30.00000,
,,,-00.000027720000, -32.00000,
,,,-00.000027680000, -30.00000,
,,,-00.000027640000, -28.00000,
,,,-00.000027600000, -28.00000,
,,,-00.000027560000, -30.00000,
,,,-00.000027520000, -26.00000,
,,,-00.000027480000, -28.00000,
,,,-00.000027440000, -26.00000,
,,,-00.000027400000, -26.00000,
,,,-00.000027360000, -26.00000,
,,,-00.000027320000, -26.00000,
,,,-00.000027280000, -24.00000,
,,,-00.000027240000, -24.00000,
,,,-00.000027200000, -24.00000,
,,,-00.000027160000, -24.00000,
,,,-00.000027120000, -24.00000,
,,,-00.000027080000, -22.00000,
,,,-00.000027040000, -20.00000,
,,,-00.000027000000, -22.00000,
,,,-00.000026960000, -20.00000,
,,,-00.000026920000, -20.00000,
,,,-00.000026880000, -20.00000,
,,,-00.000026840000, -20.00000,
,,,-00.000026800000, -18.00000,
,,,-00.000026760000, -16.00000,
,,,-00.000026720000, -18.00000,
,,,-00.000026680000, -16.00000,
,,,-00.000026640000, -16.00000,
,,,-00.000026600000, -16.00000,
,,,-00.000026560000, -16.00000,
,,,-00.000026520000, -16.00000,
,,,-00.000026480000, -14.00000,
,,,-00.000026440000, -14.00000,
,,,-00.000026400000, -14.00000,
,,,-00.000026360000, -12.00000,
,,,-00.000026320000, -10.00000,
,,,-00.000026280000, -10.00000,
,,,-00.000026240000, -12.00000,
,,,-00.000026200000, -10.00000,
,,,-00.000026160000,  -8.00000,
,,,-00.000026120000, -10.00000,
,,,-00.000026080000, -12.00000,
,,,-00.000026040000,  -8.00000,
,,,-00.000026000000,  -8.00000,
,,,-00.000025960000,  -8.00000,
,,,-00.000025920000,  -8.00000,
,,,-00.000025880000,  -6.00000,
,,,-00.000025840000,  -6.00000,
,,,-00.000025800000,  -6.00000,
,,,-00.000025760000,  -6.00000,
,,,-00.000025720000,  -2.00000,
,,,-00.000025680000,  -4.00000,
,,,-00.000025640000,  -4.00000,
,,,-00.000025600000,  -4.00000,
,,,-00.000025560000,  -4.00000,
,,,-00.000025520000,   0.00000,
,,,-00.000025480000,   0.00000,
